singlecycle.vcd
$date
	Wed Dec 18 05:57:01 2024
$end
$version
	Icarus Verilog
$end
$timescale
	1ps
$end
$scope module SingleCycleProcTest_v $end
$var wire 64 ! currentPC [63:0] $end
$var wire 64 " MemtoRegOut [63:0] $end
$var reg 1 # CLK $end
$var reg 1 $ Reset_L $end
$var reg 8 % passed [7:0] $end
$var reg 64 & startPC [63:0] $end
$var reg 16 ' watchdog [15:0] $end
$scope module uut $end
$var wire 1 # CLK $end
$var wire 1 $ resetl $end
$var wire 64 ( startpc [63:0] $end
$var wire 1 ) zero $end
$var wire 1 * uncond_branch $end
$var wire 3 + signop [2:0] $end
$var wire 5 , rn [4:0] $end
$var wire 5 - rm [4:0] $end
$var wire 1 . regwrite $end
$var wire 64 / regoutB [63:0] $end
$var wire 64 0 regoutA [63:0] $end
$var wire 1 1 reg2loc $end
$var wire 64 2 readdata [63:0] $end
$var wire 5 3 rd [4:0] $end
$var wire 11 4 opcode [10:0] $end
$var wire 64 5 nextpc [63:0] $end
$var wire 1 6 memwrite $end
$var wire 1 7 memread $end
$var wire 1 8 mem2reg $end
$var wire 32 9 instruction [31:0] $end
$var wire 64 : extimm [63:0] $end
$var wire 1 ; branch $end
$var wire 1 < alusrc $end
$var wire 64 = aluout [63:0] $end
$var wire 4 > aluctrl [3:0] $end
$var wire 64 ? aluBin [63:0] $end
$var wire 64 @ MemtoRegOut [63:0] $end
$var reg 64 A currentpc [63:0] $end
$scope module alu $end
$var wire 64 B BusB [63:0] $end
$var wire 1 ) Zero $end
$var wire 64 C BusW [63:0] $end
$var wire 64 D BusA [63:0] $end
$var wire 4 E ALUCtrl [3:0] $end
$var reg 64 F bus [63:0] $end
$upscope $end
$scope module control $end
$var wire 11 G opcode [10:0] $end
$var reg 4 H aluop [3:0] $end
$var reg 1 < alusrc $end
$var reg 1 ; branch $end
$var reg 1 8 mem2reg $end
$var reg 1 7 memread $end
$var reg 1 6 memwrite $end
$var reg 1 1 reg2loc $end
$var reg 1 . regwrite $end
$var reg 3 I signop [2:0] $end
$var reg 1 * uncond_branch $end
$upscope $end
$scope module datamemory $end
$var wire 64 J Address [63:0] $end
$var wire 1 # Clock $end
$var wire 1 7 MemoryRead $end
$var wire 1 6 MemoryWrite $end
$var wire 64 K WriteData [63:0] $end
$var reg 64 L ReadData [63:0] $end
$scope task initset $end
$var reg 64 M addr [63:0] $end
$var reg 64 N data [63:0] $end
$upscope $end
$upscope $end
$scope module imem $end
$var wire 64 O Address [63:0] $end
$var reg 32 P Data [31:0] $end
$upscope $end
$scope module nextPCl $end
$var wire 1 ) ALUZero $end
$var wire 1 ; Branch $end
$var wire 64 Q CurrentPC [63:0] $end
$var wire 64 R NextPC [63:0] $end
$var wire 1 * Uncondbranch $end
$var wire 64 S SignExtImm64 [63:0] $end
$var reg 64 T bus [63:0] $end
$upscope $end
$scope module rf $end
$var wire 64 U BusW [63:0] $end
$var wire 1 # Clk $end
$var wire 5 V RA [4:0] $end
$var wire 5 W RB [4:0] $end
$var wire 5 X RW [4:0] $end
$var wire 1 . RegWr $end
$var wire 64 Y BusB [63:0] $end
$var wire 64 Z BusA [63:0] $end
$upscope $end
$scope module signext $end
$var wire 3 [ Ctrl [2:0] $end
$var wire 26 \ Imm26 [25:0] $end
$var wire 64 ] BusImm [63:0] $end
$var reg 64 ^ result [63:0] $end
$upscope $end
$upscope $end
$scope task allPassed $end
$var reg 8 _ numTests [7:0] $end
$var reg 8 ` passed [7:0] $end
$upscope $end
$scope task passTest $end
$var reg 64 a actualOut [63:0] $end
$var reg 64 b expectedOut [63:0] $end
$var reg 8 c passed [7:0] $end
$var reg 257 d testType [256:0] $end
$upscope $end
$upscope $end
$enddefinitions $end
#0
$dumpvars
bx d
bx c
bx b
bx a
bx `
bx _
bx ^
bx ]
bx \
bx [
bx Z
bx Y
bx X
bx W
bx V
bx U
bx T
bx S
bx R
bx Q
bx P
bx O
b0 N
b100000 M
bx L
bx K
bx J
bx I
bx H
bx G
bx F
bx E
bx D
bx C
bx B
bx A
bx @
bx ?
bx >
bx =
x<
x;
bx :
bx 9
x8
x7
x6
bx 5
bx 4
bx 3
bx 2
x1
bx 0
bx /
x.
bx -
bx ,
bx +
x*
x)
b0 (
b0 '
b0 &
b0 %
1$
0#
bx "
bx !
$end
#60000
1#
#120000
b1 '
0#
#121000
0$
#180000
1#
#240000
b10 '
0#
#243000
b0 ?
b0 B
b0 :
b0 S
b0 ]
b0 ^
b11 +
b11 I
b11 [
b10 >
b10 E
b10 H
0*
0;
06
17
1.
18
1<
b0x00x ,
b0x00x W
b10000000000001111101001 \
b11111000010 4
b11111000010 G
b11111 -
b11111 V
b1001 3
b1001 X
b11111000010000000000001111101001 9
b11111000010000000000001111101001 P
b100 5
b100 R
b100 T
b0 !
b0 A
b0 O
b0 Q
#245000
1)
b0 =
b0 C
b0 F
b0 J
b0 0
b0 D
b0 Z
#300000
b1 "
b1 @
b1 U
b1 2
b1 L
1$
1#
#360000
b11 '
0#
#363000
0)
b1000 =
b1000 C
b1000 F
b1000 J
b1000 ?
b1000 B
b1000 :
b1000 S
b1000 ]
b1000 ^
b0x0x0 ,
b0x0x0 W
b10000001000001111101010 \
b1010 3
b1010 X
b11111000010000001000001111101010 9
b11111000010000001000001111101010 P
b1000 5
b1000 R
b1000 T
b100 !
b100 A
b100 O
b100 Q
#420000
b1010 "
b1010 @
b1010 U
b1010 2
b1010 L
1#
#480000
b100 '
0#
#483000
b10000 =
b10000 C
b10000 F
b10000 J
b10000 ?
b10000 B
b10000 :
b10000 S
b10000 ]
b10000 ^
b0x0x1 ,
b0x0x1 W
b10000010000001111101011 \
b1011 3
b1011 X
b11111000010000010000001111101011 9
b11111000010000010000001111101011 P
b1100 5
b1100 R
b1100 T
b1000 !
b1000 A
b1000 O
b1000 Q
#540000
b101 "
b101 @
b101 U
b101 2
b101 L
1#
#600000
b101 '
0#
#603000
b11000 =
b11000 C
b11000 F
b11000 J
b11000 ?
b11000 B
b11000 :
b11000 S
b11000 ]
b11000 ^
b0xx0x ,
b0xx0x W
b10000011000001111101100 \
b1100 3
b1100 X
b11111000010000011000001111101100 9
b11111000010000011000001111101100 P
b10000 5
b10000 R
b10000 T
b1100 !
b1100 A
b1100 O
b1100 Q
#660000
b111111111011111010100111110111101010110110111110111011111111 "
b111111111011111010100111110111101010110110111110111011111111 @
b111111111011111010100111110111101010110110111110111011111111 U
b111111111011111010100111110111101010110110111110111011111111 2
b111111111011111010100111110111101010110110111110111011111111 L
1#
#720000
b110 '
0#
#723000
b100000 =
b100000 C
b100000 F
b100000 J
b100000 ?
b100000 B
b100000 :
b100000 S
b100000 ]
b100000 ^
b0xxxx ,
b0xxxx W
b10000100000001111101101 \
b1101 3
b1101 X
b11111000010000100000001111101101 9
b11111000010000100000001111101101 P
b10100 5
b10100 R
b10100 T
b10000 !
b10000 A
b10000 O
b10000 Q
#780000
b0 "
b0 @
b0 U
b0 2
b0 L
1#
#840000
b111 '
0#
#843000
x)
bx =
bx C
bx F
bx J
bx "
bx @
bx U
bx ?
bx B
b0 :
b0 S
b0 ]
b0 ^
bx +
bx I
bx [
b1 >
b1 E
b1 H
07
08
0<
01
b1011 ,
b1011 W
b10000010110000000101001010 \
b10101010000 4
b10101010000 G
b1010 -
b1010 V
b1010 3
b1010 X
b10101010000010110000000101001010 9
b10101010000010110000000101001010 P
b11000 5
b11000 R
b11000 T
b10100 !
b10100 A
b10100 O
b10100 Q
#845000
0)
b1111 "
b1111 @
b1111 U
b101 ?
b101 B
b1111 =
b1111 C
b1111 F
b1111 J
b101 /
b101 K
b101 Y
b1010 0
b1010 D
b1010 Z
#900000
1#
#960000
b1000 '
0#
#963000
1)
b0 "
b0 @
b0 U
b0 =
b0 C
b0 F
b0 J
b0 >
b0 E
b0 H
b1010 ,
b1010 W
b10000010100000000110001100 \
b10001010000 4
b10001010000 G
b1100 -
b1100 V
b1100 3
b1100 X
b10001010000010100000000110001100 9
b10001010000010100000000110001100 P
b11100 5
b11100 R
b11100 T
b11000 !
b11000 A
b11000 O
b11000 Q
#965000
0)
b1111 "
b1111 @
b1111 U
b1111 ?
b1111 B
b1111 =
b1111 C
b1111 F
b1111 J
b1111 /
b1111 K
b1111 Y
b111111111011111010100111110111101010110110111110111011111111 0
b111111111011111010100111110111101010110110111110111011111111 D
b111111111011111010100111110111101010110110111110111011111111 Z
#1020000
1#
#1080000
b1001 '
0#
#1083000
b0xxxx "
b0xxxx @
b0xxxx U
b100 :
b100 S
b100 ]
b100 ^
b1 +
b1 I
b1 [
b111 >
b111 E
b111 H
1;
0.
x8
11
b1100 ,
b1100 W
b10001100 \
b10110100000 4
b10110100000 G
b100 -
b100 V
b10110100000000000000000010001100 9
b10110100000000000000000010001100 P
b100000 5
b100000 R
b100000 T
b11100 !
b11100 A
b11100 O
b11100 Q
#1085000
bx 0
bx D
bx Z
#1140000
1#
#1200000
b1010 '
0#
#1203000
x)
bx =
bx C
bx F
bx J
bx "
bx @
bx U
b0 :
b0 S
b0 ]
b0 ^
bx +
bx I
bx [
b10 >
b10 E
b10 H
0;
1.
08
01
b1001 ,
b1001 W
b11000010010000000110101101 \
b10001011000 4
b10001011000 G
b1101 -
b1101 V
b1101 3
b1101 X
b10001011000010010000000110101101 9
b10001011000010010000000110101101 P
b100100 5
b100100 R
b100100 T
b100000 !
b100000 A
b100000 O
b100000 Q
#1205000
0)
b1 "
b1 @
b1 U
b1 ?
b1 B
b1 =
b1 C
b1 F
b1 J
b1 /
b1 K
b1 Y
b0 0
b0 D
b0 Z
#1260000
1#
#1320000
b1011 '
0#
#1323000
b1111111111111111111111111111111111111111111111111111111111111111 "
b1111111111111111111111111111111111111111111111111111111111111111 @
b1111111111111111111111111111111111111111111111111111111111111111 U
b1111111111111111111111111111111111111111111111111111111111111111 =
b1111111111111111111111111111111111111111111111111111111111111111 C
b1111111111111111111111111111111111111111111111111111111111111111 F
b1111111111111111111111111111111111111111111111111111111111111111 J
b110 >
b110 E
b110 H
b11000010010000000110001100 \
b11001011000 4
b11001011000 G
b1100 -
b1100 V
b1100 3
b1100 X
b11001011000010010000000110001100 9
b11001011000010010000000110001100 P
b101000 5
b101000 R
b101000 T
b100100 !
b100100 A
b100100 O
b100100 Q
#1325000
b1110 "
b1110 @
b1110 U
b1110 =
b1110 C
b1110 F
b1110 J
b1111 0
b1111 D
b1111 Z
#1380000
1#
#1440000
b1100 '
0#
#1443000
b0xxx0 "
b0xxx0 @
b0xxx0 U
b0xxxxxxxxxxxxxxxxxxxxxxxxxxxxxxxxxxxxxxxxxxxxxxxxxxxxxxxxxxxx01 ?
b0xxxxxxxxxxxxxxxxxxxxxxxxxxxxxxxxxxxxxxxxxxxxxxxxxxxxxxxxxxxx01 B
b11111111111111111111111111111111111111111111111111111111111101 :
b11111111111111111111111111111111111111111111111111111111111101 S
b11111111111111111111111111111111111111111111111111111111111101 ]
b11111111111111111111111111111111111111111111111111111111111101 ^
b0 +
b0 I
b0 [
bx >
bx E
bx H
1*
x;
0.
x8
x<
x1
b111x1 ,
b111x1 W
b11111111111111111111111101 \
b10111111 4
b10111111 G
b11111 -
b11111 V
b11101 3
b11101 X
b10111111111111111111111111101 9
b10111111111111111111111111101 P
b11100 5
b11100 R
b11100 T
b101000 !
b101000 A
b101000 O
b101000 Q
#1445000
bx ?
bx B
bx /
bx K
bx Y
b0 0
b0 D
b0 Z
#1500000
1#
#1560000
b1101 '
0#
#1563000
x)
bx "
bx @
bx U
bx =
bx C
bx F
bx J
b100 :
b100 S
b100 ]
b100 ^
b1 +
b1 I
b1 [
b111 >
b111 E
b111 H
0*
1;
0<
11
b1100 ,
b1100 W
b10001100 \
b10110100000 4
b10110100000 G
b100 -
b100 V
b1100 3
b1100 X
b10110100000000000000000010001100 9
b10110100000000000000000010001100 P
b100000 5
b100000 R
b100000 T
b11100 !
b11100 A
b11100 O
b11100 Q
#1565000
0)
b0xxx0 "
b0xxx0 @
b0xxx0 U
b1110 =
b1110 C
b1110 F
b1110 J
b1110 ?
b1110 B
b1110 /
b1110 K
b1110 Y
bx 0
bx D
bx Z
#1620000
1#
#1680000
b1110 '
0#
#1683000
x)
bx =
bx C
bx F
bx J
bx "
bx @
bx U
b0 :
b0 S
b0 ]
b0 ^
bx +
bx I
bx [
b10 >
b10 E
b10 H
0;
1.
08
01
b1001 ,
b1001 W
b11000010010000000110101101 \
b10001011000 4
b10001011000 G
b1101 -
b1101 V
b1101 3
b1101 X
b10001011000010010000000110101101 9
b10001011000010010000000110101101 P
b100100 5
b100100 R
b100100 T
b100000 !
b100000 A
b100000 O
b100000 Q
#1685000
0)
b10 "
b10 @
b10 U
b1 ?
b1 B
b10 =
b10 C
b10 F
b10 J
b1 /
b1 K
b1 Y
b1 0
b1 D
b1 Z
#1740000
1#
#1800000
b1111 '
0#
#1803000
1)
b0 "
b0 @
b0 U
b0 =
b0 C
b0 F
b0 J
b110 >
b110 E
b110 H
b11000010010000000110001100 \
b11001011000 4
b11001011000 G
b1100 -
b1100 V
b1100 3
b1100 X
b11001011000010010000000110001100 9
b11001011000010010000000110001100 P
b101000 5
b101000 R
b101000 T
b100100 !
b100100 A
b100100 O
b100100 Q
#1805000
0)
b1101 "
b1101 @
b1101 U
b1101 =
b1101 C
b1101 F
b1101 J
b1110 0
b1110 D
b1110 Z
#1860000
1#
#1920000
b10000 '
0#
#1923000
b0xx0x "
b0xx0x @
b0xx0x U
b0xxxxxxxxxxxxxxxxxxxxxxxxxxxxxxxxxxxxxxxxxxxxxxxxxxxxxxxxxxxx01 ?
b0xxxxxxxxxxxxxxxxxxxxxxxxxxxxxxxxxxxxxxxxxxxxxxxxxxxxxxxxxxxx01 B
b11111111111111111111111111111111111111111111111111111111111101 :
b11111111111111111111111111111111111111111111111111111111111101 S
b11111111111111111111111111111111111111111111111111111111111101 ]
b11111111111111111111111111111111111111111111111111111111111101 ^
b0 +
b0 I
b0 [
bx >
bx E
bx H
1*
x;
0.
x8
x<
x1
b111x1 ,
b111x1 W
b11111111111111111111111101 \
b10111111 4
b10111111 G
b11111 -
b11111 V
b11101 3
b11101 X
b10111111111111111111111111101 9
b10111111111111111111111111101 P
b11100 5
b11100 R
b11100 T
b101000 !
b101000 A
b101000 O
b101000 Q
#1925000
bx ?
bx B
bx /
bx K
bx Y
b0 0
b0 D
b0 Z
#1980000
1#
#2040000
b10001 '
0#
#2043000
x)
bx "
bx @
bx U
bx =
bx C
bx F
bx J
b100 :
b100 S
b100 ]
b100 ^
b1 +
b1 I
b1 [
b111 >
b111 E
b111 H
0*
1;
0<
11
b1100 ,
b1100 W
b10001100 \
b10110100000 4
b10110100000 G
b100 -
b100 V
b1100 3
b1100 X
b10110100000000000000000010001100 9
b10110100000000000000000010001100 P
b100000 5
b100000 R
b100000 T
b11100 !
b11100 A
b11100 O
b11100 Q
#2045000
0)
b0xx0x "
b0xx0x @
b0xx0x U
b1101 =
b1101 C
b1101 F
b1101 J
b1101 ?
b1101 B
b1101 /
b1101 K
b1101 Y
bx 0
bx D
bx Z
#2100000
1#
#2160000
b10010 '
0#
#2163000
x)
bx =
bx C
bx F
bx J
bx "
bx @
bx U
b0 :
b0 S
b0 ]
b0 ^
bx +
bx I
bx [
b10 >
b10 E
b10 H
0;
1.
08
01
b1001 ,
b1001 W
b11000010010000000110101101 \
b10001011000 4
b10001011000 G
b1101 -
b1101 V
b1101 3
b1101 X
b10001011000010010000000110101101 9
b10001011000010010000000110101101 P
b100100 5
b100100 R
b100100 T
b100000 !
b100000 A
b100000 O
b100000 Q
#2165000
0)
b11 "
b11 @
b11 U
b1 ?
b1 B
b11 =
b11 C
b11 F
b11 J
b1 /
b1 K
b1 Y
b10 0
b10 D
b10 Z
#2220000
1#
#2280000
b10011 '
0#
#2283000
b1 "
b1 @
b1 U
b1 =
b1 C
b1 F
b1 J
b110 >
b110 E
b110 H
b11000010010000000110001100 \
b11001011000 4
b11001011000 G
b1100 -
b1100 V
b1100 3
b1100 X
b11001011000010010000000110001100 9
b11001011000010010000000110001100 P
b101000 5
b101000 R
b101000 T
b100100 !
b100100 A
b100100 O
b100100 Q
#2285000
b1100 "
b1100 @
b1100 U
b1100 =
b1100 C
b1100 F
b1100 J
b1101 0
b1101 D
b1101 Z
#2340000
1#
#2400000
b10100 '
0#
#2403000
b0xx00 "
b0xx00 @
b0xx00 U
b0xxxxxxxxxxxxxxxxxxxxxxxxxxxxxxxxxxxxxxxxxxxxxxxxxxxxxxxxxxxx01 ?
b0xxxxxxxxxxxxxxxxxxxxxxxxxxxxxxxxxxxxxxxxxxxxxxxxxxxxxxxxxxxx01 B
b11111111111111111111111111111111111111111111111111111111111101 :
b11111111111111111111111111111111111111111111111111111111111101 S
b11111111111111111111111111111111111111111111111111111111111101 ]
b11111111111111111111111111111111111111111111111111111111111101 ^
b0 +
b0 I
b0 [
bx >
bx E
bx H
1*
x;
0.
x8
x<
x1
b111x1 ,
b111x1 W
b11111111111111111111111101 \
b10111111 4
b10111111 G
b11111 -
b11111 V
b11101 3
b11101 X
b10111111111111111111111111101 9
b10111111111111111111111111101 P
b11100 5
b11100 R
b11100 T
b101000 !
b101000 A
b101000 O
b101000 Q
#2405000
bx ?
bx B
bx /
bx K
bx Y
b0 0
b0 D
b0 Z
#2460000
1#
#2520000
b10101 '
0#
#2523000
x)
bx "
bx @
bx U
bx =
bx C
bx F
bx J
b100 :
b100 S
b100 ]
b100 ^
b1 +
b1 I
b1 [
b111 >
b111 E
b111 H
0*
1;
0<
11
b1100 ,
b1100 W
b10001100 \
b10110100000 4
b10110100000 G
b100 -
b100 V
b1100 3
b1100 X
b10110100000000000000000010001100 9
b10110100000000000000000010001100 P
b100000 5
b100000 R
b100000 T
b11100 !
b11100 A
b11100 O
b11100 Q
#2525000
0)
b0xx00 "
b0xx00 @
b0xx00 U
b1100 =
b1100 C
b1100 F
b1100 J
b1100 ?
b1100 B
b1100 /
b1100 K
b1100 Y
bx 0
bx D
bx Z
#2580000
1#
#2640000
b10110 '
0#
#2643000
x)
bx =
bx C
bx F
bx J
bx "
bx @
bx U
b0 :
b0 S
b0 ]
b0 ^
bx +
bx I
bx [
b10 >
b10 E
b10 H
0;
1.
08
01
b1001 ,
b1001 W
b11000010010000000110101101 \
b10001011000 4
b10001011000 G
b1101 -
b1101 V
b1101 3
b1101 X
b10001011000010010000000110101101 9
b10001011000010010000000110101101 P
b100100 5
b100100 R
b100100 T
b100000 !
b100000 A
b100000 O
b100000 Q
#2645000
0)
b100 "
b100 @
b100 U
b1 ?
b1 B
b100 =
b100 C
b100 F
b100 J
b1 /
b1 K
b1 Y
b11 0
b11 D
b11 Z
#2700000
1#
#2760000
b10111 '
0#
#2763000
b10 "
b10 @
b10 U
b10 =
b10 C
b10 F
b10 J
b110 >
b110 E
b110 H
b11000010010000000110001100 \
b11001011000 4
b11001011000 G
b1100 -
b1100 V
b1100 3
b1100 X
b11001011000010010000000110001100 9
b11001011000010010000000110001100 P
b101000 5
b101000 R
b101000 T
b100100 !
b100100 A
b100100 O
b100100 Q
#2765000
b1011 "
b1011 @
b1011 U
b1011 =
b1011 C
b1011 F
b1011 J
b1100 0
b1100 D
b1100 Z
#2820000
1#
#2880000
b11000 '
0#
#2883000
b0x0xx "
b0x0xx @
b0x0xx U
b0xxxxxxxxxxxxxxxxxxxxxxxxxxxxxxxxxxxxxxxxxxxxxxxxxxxxxxxxxxxx01 ?
b0xxxxxxxxxxxxxxxxxxxxxxxxxxxxxxxxxxxxxxxxxxxxxxxxxxxxxxxxxxxx01 B
b11111111111111111111111111111111111111111111111111111111111101 :
b11111111111111111111111111111111111111111111111111111111111101 S
b11111111111111111111111111111111111111111111111111111111111101 ]
b11111111111111111111111111111111111111111111111111111111111101 ^
b0 +
b0 I
b0 [
bx >
bx E
bx H
1*
x;
0.
x8
x<
x1
b111x1 ,
b111x1 W
b11111111111111111111111101 \
b10111111 4
b10111111 G
b11111 -
b11111 V
b11101 3
b11101 X
b10111111111111111111111111101 9
b10111111111111111111111111101 P
b11100 5
b11100 R
b11100 T
b101000 !
b101000 A
b101000 O
b101000 Q
#2885000
bx ?
bx B
bx /
bx K
bx Y
b0 0
b0 D
b0 Z
#2940000
1#
#3000000
b11001 '
0#
#3003000
x)
bx "
bx @
bx U
bx =
bx C
bx F
bx J
b100 :
b100 S
b100 ]
b100 ^
b1 +
b1 I
b1 [
b111 >
b111 E
b111 H
0*
1;
0<
11
b1100 ,
b1100 W
b10001100 \
b10110100000 4
b10110100000 G
b100 -
b100 V
b1100 3
b1100 X
b10110100000000000000000010001100 9
b10110100000000000000000010001100 P
b100000 5
b100000 R
b100000 T
b11100 !
b11100 A
b11100 O
b11100 Q
#3005000
0)
b0x0xx "
b0x0xx @
b0x0xx U
b1011 =
b1011 C
b1011 F
b1011 J
b1011 ?
b1011 B
b1011 /
b1011 K
b1011 Y
bx 0
bx D
bx Z
#3060000
1#
#3120000
b11010 '
0#
#3123000
x)
bx =
bx C
bx F
bx J
bx "
bx @
bx U
b0 :
b0 S
b0 ]
b0 ^
bx +
bx I
bx [
b10 >
b10 E
b10 H
0;
1.
08
01
b1001 ,
b1001 W
b11000010010000000110101101 \
b10001011000 4
b10001011000 G
b1101 -
b1101 V
b1101 3
b1101 X
b10001011000010010000000110101101 9
b10001011000010010000000110101101 P
b100100 5
b100100 R
b100100 T
b100000 !
b100000 A
b100000 O
b100000 Q
#3125000
0)
b101 "
b101 @
b101 U
b1 ?
b1 B
b101 =
b101 C
b101 F
b101 J
b1 /
b1 K
b1 Y
b100 0
b100 D
b100 Z
#3180000
1#
#3240000
b11011 '
0#
#3243000
b11 "
b11 @
b11 U
b11 =
b11 C
b11 F
b11 J
b110 >
b110 E
b110 H
b11000010010000000110001100 \
b11001011000 4
b11001011000 G
b1100 -
b1100 V
b1100 3
b1100 X
b11001011000010010000000110001100 9
b11001011000010010000000110001100 P
b101000 5
b101000 R
b101000 T
b100100 !
b100100 A
b100100 O
b100100 Q
#3245000
b1010 "
b1010 @
b1010 U
b1010 =
b1010 C
b1010 F
b1010 J
b1011 0
b1011 D
b1011 Z
#3300000
1#
#3360000
b11100 '
0#
#3363000
b0x0x0 "
b0x0x0 @
b0x0x0 U
b0xxxxxxxxxxxxxxxxxxxxxxxxxxxxxxxxxxxxxxxxxxxxxxxxxxxxxxxxxxxx01 ?
b0xxxxxxxxxxxxxxxxxxxxxxxxxxxxxxxxxxxxxxxxxxxxxxxxxxxxxxxxxxxx01 B
b11111111111111111111111111111111111111111111111111111111111101 :
b11111111111111111111111111111111111111111111111111111111111101 S
b11111111111111111111111111111111111111111111111111111111111101 ]
b11111111111111111111111111111111111111111111111111111111111101 ^
b0 +
b0 I
b0 [
bx >
bx E
bx H
1*
x;
0.
x8
x<
x1
b111x1 ,
b111x1 W
b11111111111111111111111101 \
b10111111 4
b10111111 G
b11111 -
b11111 V
b11101 3
b11101 X
b10111111111111111111111111101 9
b10111111111111111111111111101 P
b11100 5
b11100 R
b11100 T
b101000 !
b101000 A
b101000 O
b101000 Q
#3365000
bx ?
bx B
bx /
bx K
bx Y
b0 0
b0 D
b0 Z
#3420000
1#
#3480000
b11101 '
0#
#3483000
x)
bx "
bx @
bx U
bx =
bx C
bx F
bx J
b100 :
b100 S
b100 ]
b100 ^
b1 +
b1 I
b1 [
b111 >
b111 E
b111 H
0*
1;
0<
11
b1100 ,
b1100 W
b10001100 \
b10110100000 4
b10110100000 G
b100 -
b100 V
b1100 3
b1100 X
b10110100000000000000000010001100 9
b10110100000000000000000010001100 P
b100000 5
b100000 R
b100000 T
b11100 !
b11100 A
b11100 O
b11100 Q
#3485000
0)
b0x0x0 "
b0x0x0 @
b0x0x0 U
b1010 =
b1010 C
b1010 F
b1010 J
b1010 ?
b1010 B
b1010 /
b1010 K
b1010 Y
bx 0
bx D
bx Z
#3540000
1#
#3600000
b11110 '
0#
#3603000
x)
bx =
bx C
bx F
bx J
bx "
bx @
bx U
b0 :
b0 S
b0 ]
b0 ^
bx +
bx I
bx [
b10 >
b10 E
b10 H
0;
1.
08
01
b1001 ,
b1001 W
b11000010010000000110101101 \
b10001011000 4
b10001011000 G
b1101 -
b1101 V
b1101 3
b1101 X
b10001011000010010000000110101101 9
b10001011000010010000000110101101 P
b100100 5
b100100 R
b100100 T
b100000 !
b100000 A
b100000 O
b100000 Q
#3605000
0)
b110 "
b110 @
b110 U
b1 ?
b1 B
b110 =
b110 C
b110 F
b110 J
b1 /
b1 K
b1 Y
b101 0
b101 D
b101 Z
#3660000
1#
#3720000
b11111 '
0#
#3723000
b100 "
b100 @
b100 U
b100 =
b100 C
b100 F
b100 J
b110 >
b110 E
b110 H
b11000010010000000110001100 \
b11001011000 4
b11001011000 G
b1100 -
b1100 V
b1100 3
b1100 X
b11001011000010010000000110001100 9
b11001011000010010000000110001100 P
b101000 5
b101000 R
b101000 T
b100100 !
b100100 A
b100100 O
b100100 Q
#3725000
b1001 "
b1001 @
b1001 U
b1001 =
b1001 C
b1001 F
b1001 J
b1010 0
b1010 D
b1010 Z
#3780000
1#
#3840000
b100000 '
0#
#3843000
b0x00x "
b0x00x @
b0x00x U
b0xxxxxxxxxxxxxxxxxxxxxxxxxxxxxxxxxxxxxxxxxxxxxxxxxxxxxxxxxxxx01 ?
b0xxxxxxxxxxxxxxxxxxxxxxxxxxxxxxxxxxxxxxxxxxxxxxxxxxxxxxxxxxxx01 B
b11111111111111111111111111111111111111111111111111111111111101 :
b11111111111111111111111111111111111111111111111111111111111101 S
b11111111111111111111111111111111111111111111111111111111111101 ]
b11111111111111111111111111111111111111111111111111111111111101 ^
b0 +
b0 I
b0 [
bx >
bx E
bx H
1*
x;
0.
x8
x<
x1
b111x1 ,
b111x1 W
b11111111111111111111111101 \
b10111111 4
b10111111 G
b11111 -
b11111 V
b11101 3
b11101 X
b10111111111111111111111111101 9
b10111111111111111111111111101 P
b11100 5
b11100 R
b11100 T
b101000 !
b101000 A
b101000 O
b101000 Q
#3845000
bx ?
bx B
bx /
bx K
bx Y
b0 0
b0 D
b0 Z
#3900000
1#
#3960000
b100001 '
0#
#3963000
x)
bx "
bx @
bx U
bx =
bx C
bx F
bx J
b100 :
b100 S
b100 ]
b100 ^
b1 +
b1 I
b1 [
b111 >
b111 E
b111 H
0*
1;
0<
11
b1100 ,
b1100 W
b10001100 \
b10110100000 4
b10110100000 G
b100 -
b100 V
b1100 3
b1100 X
b10110100000000000000000010001100 9
b10110100000000000000000010001100 P
b100000 5
b100000 R
b100000 T
b11100 !
b11100 A
b11100 O
b11100 Q
#3965000
0)
b0x00x "
b0x00x @
b0x00x U
b1001 =
b1001 C
b1001 F
b1001 J
b1001 ?
b1001 B
b1001 /
b1001 K
b1001 Y
bx 0
bx D
bx Z
#4020000
1#
#4080000
b100010 '
0#
#4083000
x)
bx =
bx C
bx F
bx J
bx "
bx @
bx U
b0 :
b0 S
b0 ]
b0 ^
bx +
bx I
bx [
b10 >
b10 E
b10 H
0;
1.
08
01
b1001 ,
b1001 W
b11000010010000000110101101 \
b10001011000 4
b10001011000 G
b1101 -
b1101 V
b1101 3
b1101 X
b10001011000010010000000110101101 9
b10001011000010010000000110101101 P
b100100 5
b100100 R
b100100 T
b100000 !
b100000 A
b100000 O
b100000 Q
#4085000
0)
b111 "
b111 @
b111 U
b1 ?
b1 B
b111 =
b111 C
b111 F
b111 J
b1 /
b1 K
b1 Y
b110 0
b110 D
b110 Z
#4140000
1#
#4200000
b100011 '
0#
#4203000
b101 "
b101 @
b101 U
b101 =
b101 C
b101 F
b101 J
b110 >
b110 E
b110 H
b11000010010000000110001100 \
b11001011000 4
b11001011000 G
b1100 -
b1100 V
b1100 3
b1100 X
b11001011000010010000000110001100 9
b11001011000010010000000110001100 P
b101000 5
b101000 R
b101000 T
b100100 !
b100100 A
b100100 O
b100100 Q
#4205000
b1000 "
b1000 @
b1000 U
b1000 =
b1000 C
b1000 F
b1000 J
b1001 0
b1001 D
b1001 Z
#4260000
1#
#4320000
b100100 '
0#
#4323000
b0x000 "
b0x000 @
b0x000 U
b0xxxxxxxxxxxxxxxxxxxxxxxxxxxxxxxxxxxxxxxxxxxxxxxxxxxxxxxxxxxx01 ?
b0xxxxxxxxxxxxxxxxxxxxxxxxxxxxxxxxxxxxxxxxxxxxxxxxxxxxxxxxxxxx01 B
b11111111111111111111111111111111111111111111111111111111111101 :
b11111111111111111111111111111111111111111111111111111111111101 S
b11111111111111111111111111111111111111111111111111111111111101 ]
b11111111111111111111111111111111111111111111111111111111111101 ^
b0 +
b0 I
b0 [
bx >
bx E
bx H
1*
x;
0.
x8
x<
x1
b111x1 ,
b111x1 W
b11111111111111111111111101 \
b10111111 4
b10111111 G
b11111 -
b11111 V
b11101 3
b11101 X
b10111111111111111111111111101 9
b10111111111111111111111111101 P
b11100 5
b11100 R
b11100 T
b101000 !
b101000 A
b101000 O
b101000 Q
#4325000
bx ?
bx B
bx /
bx K
bx Y
b0 0
b0 D
b0 Z
#4380000
1#
#4440000
b100101 '
0#
#4443000
x)
bx "
bx @
bx U
bx =
bx C
bx F
bx J
b100 :
b100 S
b100 ]
b100 ^
b1 +
b1 I
b1 [
b111 >
b111 E
b111 H
0*
1;
0<
11
b1100 ,
b1100 W
b10001100 \
b10110100000 4
b10110100000 G
b100 -
b100 V
b1100 3
b1100 X
b10110100000000000000000010001100 9
b10110100000000000000000010001100 P
b100000 5
b100000 R
b100000 T
b11100 !
b11100 A
b11100 O
b11100 Q
#4445000
0)
b0x000 "
b0x000 @
b0x000 U
b1000 =
b1000 C
b1000 F
b1000 J
b1000 ?
b1000 B
b1000 /
b1000 K
b1000 Y
bx 0
bx D
bx Z
#4500000
1#
#4560000
b100110 '
0#
